module database-polaroid

go 1.14

require (
	github.com/gizak/termui/v3 v3.1.0
	github.com/mattn/go-runewidth v0.0.9 // indirect
	github.com/nsf/termbox-go v0.0.0-20200418040025-38ba6e5628f1 // indirect
)
